module gitlab.com/digilab.overheid.nl/ecosystem/synthetic-data-generator/fictief-register-kadaster

go 1.21.0

require (
	github.com/go-chi/chi/v5 v5.0.10
	github.com/golang-migrate/migrate/v4 v4.16.2
	github.com/google/uuid v1.3.1
	github.com/huandu/xstrings v1.4.0
	github.com/jmoiron/sqlx v1.3.5
	github.com/lib/pq v1.10.2
	github.com/spf13/cobra v1.7.0
)

require (
	github.com/hashicorp/errwrap v1.1.0 // indirect
	github.com/hashicorp/go-multierror v1.1.1 // indirect
	github.com/inconshreveable/mousetrap v1.1.0 // indirect
	github.com/spf13/pflag v1.0.5 // indirect
	go.uber.org/atomic v1.7.0 // indirect
)
